{
  "owner": "mightybyte",
  "repo": "obelisk",
  "branch": "tar-in-backend-path-2",
  "rev": "96415ed7799c7886577a509a7405570d41abc473",
  "sha256": "1800d849rkyysh7ld61zqcppi75518k19p3fzrjw2737nds44bg2"
}
